<?xml version="1.0" encoding="UTF-8"?>
<session version="1.0">
<refactoring comment="Rename type &apos;br.com.alura.loja.ClientTeste&apos; to &apos;ClienteTeste&apos;&#x0D;&#x0A;- Original project: &apos;loja&apos;&#x0D;&#x0A;- Original element: &apos;br.com.alura.loja.ClientTeste&apos;&#x0D;&#x0A;- Renamed element: &apos;br.com.alura.loja.ClienteTeste&apos;&#x0D;&#x0A;- Update references to refactored element&#x0D;&#x0A;- Update textual occurrences in comments and strings" description="Rename type &apos;ClientTeste&apos;" flags="589830" id="org.eclipse.jdt.ui.rename.type" input="/src\/test\/java&lt;br.com.alura.loja{ClientTeste.java[ClientTeste" matchStrategy="1" name="ClienteTeste" qualified="false" references="true" similarDeclarations="false" stamp="1510534763101" textual="false" version="1.0"/>
</session>